{
  "footer": {
    "blocks": ["footer-layout.desktop", "footer-layout.mobile"]
  },
  "footer-layout.desktop": { 
    "children": [
      "flex-layout.row#footer-desktop",
      "flex-layout.row#pay-footer",
      "flex-layout.row#copyright-footer"
    ]
  },
  "footer-layout.mobile": { 
    "children": [
      "flex-layout.row#footer-mobile"
    ]
  },
  "flex-layout.row#footer-mobile": {
    "props": {
      "border": "top",
      "fullWidth": true,
      "borderColor": "silver",
      "blockClass": "myLinks"
    },
    "children": [
      "flex-layout.col#footer-mobile"
    ]
  },
  "flex-layout.col#footer-mobile": {
    "props": {
      "horizontalAlign": "center",
      "width": "100%",
      "paddingLeft": 1,
      "paddingRight": 1,
      "blockClass": "col-footer-mobile"
    },
    "children": [
      "flex-layout.row#amvo",
      "flex-layout.row#row-links-mobile",
      "flex-layout.row#social-networks-mobile",
      "image#payment-method-two",
      "flex-layout.row#copyright-footer"
    ]
  },
  "flex-layout.row#row-links-mobile": {
    "props": {
      "fullWidth": true,
      "blockClass": "row-links-mobile"
    },
    "children": [
      "flex-layout.col#col-links-mobile"
    ]
  },
  "flex-layout.col#col-links-mobile": {
    "props": {
      "horizontalAlign": "center",
      "blockClass": "col-links-mobile"
    },
    "children": [
      "rich-text#textNosotros",
      "link#foo-nosotros",
      "link#foo-privacidad",
      "link#foo-terminos-condiciones",
      "rich-text#textPoliticas",
      "link#foo-facturacion",
      "link#foo-devolucionesygarantias",
      "link#foo-open-box",
      "link#prevencion-fraudes",
      "link#metodos-pago",
      "rich-text#textInformacion",
      "link#foo-preguntas",
      "link#foo-telefono",
      "link#foo-whatsapp",
      "link#foo-email",
      "rich-text#textSocial"
    ]
  },
  "flex-layout.row#social-networks-mobile": {
    "props": {
      "paddingBottom": 5,
      "blockClass": "social-networks-mobile"
    },
    "children": [
      "flex-layout.col#col-telegram",
      "flex-layout.col#col-facebook",
      "flex-layout.col#col-instagram",
      "flex-layout.col#col-tiktok",
      "flex-layout.col#col-youtube"
    ]
  },
  "flex-layout.col#col-telegram": {
    "props": {
      "horizontalAlign": "center",
      "blockClass": "col-facebook"
    },
    "children": [
      "image#telegram"
    ]
  },
  "flex-layout.col#col-facebook": {
    "props": {
      "horizontalAlign": "center",
      "blockClass": "col-facebook"
    },
    "children": [
      "image#facebook"
    ]
  },
  "flex-layout.col#col-instagram": {
    "props": {
      "horizontalAlign": "center",
      "blockClass": "col-instagram"
    },
    "children": [
      "image#instagram"
    ]
  },
  "flex-layout.col#col-tiktok": {
    "props": {
      "horizontalAlign": "center",
      "blockClass": "col-tiktok"
    },
    "children": [
      "image#tiktok"
    ]
  },
  "flex-layout.col#col-youtube": {
    "props": {
      "horizontalAlign": "center",
      "blockClass": "col-youtube"
    },
    "children": [
      "image#youtube"
    ]
  },
  "rich-text#textSocial": { 
    "props": { 
      "text": "Síguenos en",
      "font": "t-heading-5",
      "blockClass": "textSiguenos"
    }
  },
  "flex-layout.row#social-networks": {
    "props": {
      "paddingBottom": 2,
      "blockClass": "social-networks"
    },
    "children": [
      "image#telegram",
      "image#facebook",
      "image#instagram",
      "image#tiktok",
      "image#youtube"
    ]
  },
  "image#telegram": {
    "props": {
      "title": "telegram",
      "src": "https://telmovmx.vtexassets.com/arquivos/ids/157228",
      "maxHeight": 35,
      "link": {
        "url": "https://t.me/telmov_2022",
        "newTab": true
      }
    }
  },
  "image#facebook": {
    "props": {
      "title": "facebook",
      "src": "https://telmovmx.vtexassets.com/arquivos/ids/156732",
      "maxHeight": 35,
      "link": {
        "url": "https://web.facebook.com/telmov.mx",
        "newTab": true
      }
    }
  },
  "image#instagram": {
    "props": {
      "title": "instagram",
      "src": "https://telmovmx.vtexassets.com/arquivos/ids/156733",
      "maxHeight": 35,
      "link": {
        "url": "https://www.instagram.com/telmov.mx",
        "newTab": true
      }
    }
  },
  "image#tiktok": {
    "props": {
      "title": "tiktok",
      "src": "https://telmovmx.vtexassets.com/arquivos/ids/156734",
      "maxHeight": 35,
      "link": {
        "url": "https://www.tiktok.com/@telmovmx?is_copy_url=1&amp;is_from_webapp=v1",
        "newTab": true
      }
    }
  },
  "image#youtube": {
    "props": {
      "title": "youtube",
      "src": "https://telmovmx.vtexassets.com/arquivos/ids/156735",
      "maxHeight": 35,
      "link": {
        "url": "https://www.youtube.com/channel/UCo68Vo-b0cCan011-Ji98EA?app=desktop",
        "newTab": true
      }
    }
  },
  "flex-layout.row#amvo": {
    "props": {
      "blockClass": "row-amvo"
    },
    "children": [
      "image#amvo"
    ]
  },
  "image#amvo": {
    "props": {
      "blockClass": "img-amvo",
      "title": "Sello de confianza",
      "src": "https://telmovmx.vtexassets.com/arquivos/ids/158634",
      "maxHeight": 50
    }
  },
  "flex-layout.row#footer-desktop": {
    "props": {
      "border": "top",
      "borderColor": "silver",
      "fullWidth": true,
      "paddingBottom": 9,
      "blockClass": "myLinks"
    },
    "children": [
      "flex-layout.col#col-footer-desktop"
    ]
  },
  "flex-layout.col#col-footer-desktop": {
    "props": {
      "horizontalAlign": "center",
      "blockClass": "col-footer-desktop"
    },
    "children": [
      "flex-layout.row#row-footer-desktop"
    ]
  },
  "flex-layout.row#row-footer-desktop": {
    "props": {
      "blockClass": "row-footer-desktop"
    },
    "children": [
      "flex-layout.col#colLeftFooter",
      "flex-layout.col#colCenterFooter",
      "flex-layout.col#colRightFooter",
      "flex-layout.col#colSocialMedia"
    ]
  },
  "flex-layout.col#colLeftFooter": {
    "props": {
      "width": "100%",
      "horizontalAlign": "left",
      "paddingLeft": 0,
      "blockClass": "colLeftFooter"
    },
    "children": [
      "rich-text#textNosotros",
      "link#foo-nosotros",
      "link#foo-privacidad",
      "link#foo-terminos-condiciones"
    ]
  },
  "flex-layout.col#colCenterFooter": {
    "props": {
      "width": "100%",
      "horizontalAlign": "left",
      "blockClass": "colCenterFooter"
    },
    "children": [
      "rich-text#textPoliticas",
      "link#foo-facturacion",
      "link#foo-devolucionesygarantias",
      "link#foo-open-box",
      "link#prevencion-fraudes",
      "link#metodos-pago"
    ]
  },
  "flex-layout.col#colRightFooter": {
    "props": {
      "width": "100%",
      "horizontalAlign": "left",
      "blockClass": "colRightFooter"
    },
    "children": [
      "rich-text#textInformacion",
      "link#foo-preguntas",
      "link#foo-telefono",
      "link#foo-whatsapp",
      "link#foo-email"
    ]
  },
  "flex-layout.col#colSocialMedia": {
    "props": {
      "width": "100%",
      "horizontalAlign": "left",
      "paddingRight": 0,
      "blockClass": "colSocialMedia"
    },
    "children": [
      "rich-text#textSocial",
      "flex-layout.row#social-networks",
      "flex-layout.row#amvo"
    ]
  },
  "rich-text#textNosotros": { 
    "props": { 
      "text": "Acerca de Telmov",
      "font": "t-heading-5",
      "blockClass": "textNosotros"
    }
  },
  "link#foo-privacidad": {
    "props": {
      "href": "https://web.telmov.mx/aviso.html",
      "label": "Aviso de privacidad"
    }
  },
  "link#foo-terminos-condiciones": {
    "props": {
      "href": "https://web.telmov.mx/terminos-condiciones.html",
      "label": "Términos y condiciones"
    }
  },
  "link#foo-nosotros": {
    "props": {
      "href": "https://web.telmov.mx/nosotros.html",
      "label": "Nosotros"
    }
  },
  "rich-text#textPoliticas": { 
    "props": { 
      "text": "Políticas",
      "font": "t-heading-5",
      "blockClass": "textPol"
    }
  },
  "link#foo-facturacion": {
    "props": {
      "href": "https://web.telmov.mx/facturacion.html",
      "label": "Facturación"
    }
  },
  "link#foo-devolucionesygarantias": {
    "props": {
      "href": "https://web.telmov.mx/garantias.html",
      "label": "Garantías y Devoluciones"
    }
  },
  "link#foo-open-box": {
    "props": {
      "href": "https://web.telmov.mx/openbox.html",
      "label": "Open Box"
    }
  },
  "link#prevencion-fraudes": {
    "props": {
      "href": "https://web.telmov.mx/prevencion.html",
      "label": "Prevención de fraudes"
    }
  },
  "link#metodos-pago": {
    "props": {
      "href": "https://web.telmov.mx/metodos.html",
      "label": "Métodos de pago"
    }
  },
  "rich-text#textInformacion": { 
    "props": { 
      "text": "Información",
      "font": "t-heading-5",
      "blockClass": "textInfo"
    }
  },
  "link#foo-preguntas": {
    "props": {
      "href": "https://web.telmov.mx/pfrecuentes.html",
      "label": "Preguntas Frecuentes",
      "blockClass": "textLinkPF"
    }
  },
  "link#foo-telefono": {
    "props": {
      "href": "tel:5562686066",
      "label": "Tel: (55) 6268 6066",
      "blockClass": "textLinkPF"
    }
  },
  "link#foo-whatsapp": {
    "props": {
      "href": "tel:5569100200",
      "label": "WA: (55) 6910 0200",
      "blockClass": "textLinkPF"
    }
  },
  "link#foo-email": {
    "props": {
      "href": "mailto:clientes@telmov.com.mx",
      "label": "Email: clientes@telmov.com.mx",
      "blockClass": "textLinkPF"
    }
  },
  "flex-layout.row#social": {
    "props": {
      "fullWidth": true,
      "paddingBottom": 5,
      "blockClass": "social"
    },
    "children": [
      "flex-layout.col#colSocial"
    ]
  },
  "flex-layout.col#colSocial": {
    "props": {
      "width": "100%",
      "horizontalAlign": "center",
      "blockClass": "colSocial"
    },
    "children": [
      "social-networks"
    ]
  },
  "flex-layout.row#pay-footer": {
    "props": {
      "fullWidth": true,
      "paddingBottom": 5,
      "blockClass": "payImages"
    },
    "children": [
      "flex-layout.col#col-image-one"
    ]
  },
  "flex-layout.row#pay-footer-mobile": {
    "props": {
      "fullWidth": true,
      "paddingBottom": 5,
      "blockClass": "payImages"
    },
    "children": [
      "flex-layout.col#col-image-two"
    ]
  },
  "flex-layout.col#col-image-one": {
    "props": {
      "width": "100%",
      "horizontalAlign": "center",
      "blockClass": "colImageOne"
    },
    "children": [
      "image#payment-method-one"
    ]
  },
  "image#payment-method-one": {
    "props": {
      "src": "https://telmovmx.vtexassets.com/arquivos/ids/156740",
      "maxHeight": 25,
      "blockClass": "payImageOne"
    }
  },
  "flex-layout.col#col-image-two": {
    "props": {
      "width": "100%",
      "horizontalAlign": "center",
      "blockClass": "colImageTwo"
    },
    "children": [
      "image#payment-method-two"
    ]
  },
  "image#payment-method-two": {
    "props": {
      "src": "https://telmovmx.vtexassets.com/arquivos/ids/156741",
      "maxHeight": 40,
      "blockClass": "payImageTwo"
    }
  },
  "flex-layout.col#col-copyright": {
    "props": {
      "width": "100%",
      "horizontalAlign": "center",
      "blockClass": "colSocial"
    },
    "children": [
      "rich-text#text-copyright"
    ]
  },
  "flex-layout.row#copyright-footer": {
    "props": {
      "fullWidth": true,
      "paddingBottom": 5,
      "blockClass": "copyRight"
    },
    "children": [
      "flex-layout.col#col-copyright"
    ]
  },
  "rich-text#text-copyright": { 
    "props": { 
      "text": "©Copyright 2024 Telmov.",
      "font": "t-heading-7",
      "blockClass": "textCopy"
    }
  }
}