{
  "header": {
    "blocks": [
      "header-layout.desktop",
      "header-layout.mobile"
    ]
  },
  "header.full": {
    "blocks": [
      "header-layout.desktop",
      "header-layout.mobile"
    ]
  },
  "header-layout.desktop": {
    "title": "Header. Desktop",
    "children": [
      "sticky-layout#desktop"
    ]
  },
  "sticky-layout#desktop": {
    "props": {
      "blockClass": "sticky-header"
    },
    "children": [
      "flex-layout.row#row-notification-bar",
      "flex-layout.row#desktop",
      "flex-layout.row#mega-menu"
    ]
  },
  "flex-layout.row#row-notification-bar": {
    "children": [
      "flex-layout.col#col-notification-bar"
    ],
    "props": {
      "fullWidth": "true",
      "blockClass": "row-notification-bar"
    }
  },
  "flex-layout.col#col-notification-bar": {
    "children": [
      "rich-text#text-notification-bar"
    ],
    "props": {
      "horizontalAlign": "center",
      "verticalAlign": "middle",
      "blockClass": "col-notification-bar"
    }
  },
  "rich-text#text-notification-bar": { 
    "props": { 
      "text": "¡Aprovecha hasta 9 MSI y quincenas sin intereses con envío gratis!",
      "font": "t-heading-7",
      "blockClass": "text-notification-bar"
    }
  },
  "flex-layout.row#desktop": {
    "props": {
      "preventHorizontalStretch": true,
      "preventVerticalStretch": true,
      "fullWidth": true,
      "horizontalAlign": "left",
      "blockClass": "headerDesktop"
    },
    "children": [
      "flex-layout.col#logo-desktop",
      "flex-layout.col#trigger-mega-menu",
      "flex-layout.col#search-bar-desktop",
      "flex-layout.col#spacer",
      /* "flex-layout.col#col-telegram-header",
      "flex-layout.col#col-facebook-header",
      "flex-layout.col#col-instagram-header",
      "flex-layout.col#col-tiktok-header",
      "flex-layout.col#col-youtube-header", */
      "flex-layout.col#reversso",
      "flex-layout.col#col-tu-pedido",
      /* "flex-layout.col#telmicoins", */
      /* "flex-layout.col#blog", */
      /* "flex-layout.col#telmovil", */
      "flex-layout.col#login-desktop",
      "flex-layout.col#text-minicart-desktop",
      "flex-layout.col#minicart-desktop"
    ]
  },
  "flex-layout.col#spacer": {
    "props": {
      "width": "grow"
    }
  },
  "flex-layout.col#reversso": {
    "props": {
      "horizontalAlign": "right",
      "verticalAlign": "middle",
      "paddingLeft": 5,
      "paddingRight": 5,
      "blockClass": "col-reversso"
    },
    "children": [
      "flex-layout.row#reversso"
    ]
  },
  "flex-layout.row#reversso": {
    "props": {
      "blockClass": "row-reversso"
    },
    "children": [
      "flex-layout.col#image-reversso",
      "flex-layout.col#link-reversso"
    ]
  },
  "flex-layout.col#link-reversso": {
    "props": {
      "width": "77%",
      "verticalAlign": "middle",
      "blockClass": "link-reversso"
    },
    "children": [
      /* "link#reversso" */
      "overlay-trigger"
    ]
  },
  "flex-layout.col#image-reversso": {
    "props": {
      "width": "23%",
      "verticalAlign": "bottom",
      "blockClass": "image-reversso"
    },
    "children": [
      "image#reversso"
    ]
  },
  "image#reversso": {
    "props": {
      "src": "https://telmovmx.vtexassets.com/arquivos/ids/159535",
      "maxHeight": 30
    }
  },
  /* Dropdown Reversso */
  "overlay-trigger": {
    "children": [
      "rich-text#question",
      "overlay-layout"    
    ]
  },
  "rich-text#question": {
    "props": {
      "text": "Cambios y devoluciones",
      "blockClass": "my-question"
    }
  },
  "overlay-layout": {
    "props": {
      "placement": "bottom",
      "showArrow": true,
      "blockClass": "my-overlay-layout"
    },
    "children": [
      "flex-layout.col#col-dropdown-reversso"
    ]
  },
  "flex-layout.col#col-dropdown-reversso": {
    "props": {
      "verticalAlign": "middle",
      "blockClass": "col-dropdown-reversso"
    },
    "children": [
      "flex-layout.row#row-dropdown-reversso",
      "flex-layout.row#row-dropdown-devolucionesygarantias"
    ]
  },
  "flex-layout.row#row-dropdown-reversso": {
    "props": {
      "blockClass": "row-dropdown-reversso"
    },
    "children": [
      "link#reversso"
    ]
  },
  "flex-layout.row#row-dropdown-devolucionesygarantias": {
    "props": {
      "blockClass": "row-dropdown-devygarantias"
    },
    "children": [
      "link#devolucionesygarantias"
    ]
  },
  "link#reversso": {
    "props": {
      "href": "https://telmov.reversso.mx/",
      "label": "Cambios y devoluciones",
      "blockClass": "text-reversso"
    }
  },
  "link#devolucionesygarantias": {
    "props": {
      "href": "https://web.telmov.mx/garantias.html",
      "label": "Política de cambios y devoluciones",
      "blockClass": "text-devygarantias"
    }
  },
  /*  */
  "flex-layout.col#blog": {
    "props": {
      "horizontalAlign": "right",
      "verticalAlign": "middle",
      "paddingLeft": 5,
      "paddingRight": 5,
      "border": "left",
      "borderColor": "silver",
      "blockClass": "col-blog"
    },
    "children": [
      "flex-layout.row#blog"
    ]
  },
  "flex-layout.row#blog": {
    "props": {
      "blockClass": "row-blog"
    },
    "children": [
      "flex-layout.col#image-blog",
      "flex-layout.col#link-blog"
    ]
  },
  "flex-layout.col#link-blog": {
    "props": {
      "width": "65%",
      "verticalAlign": "middle",
      "blockClass": "link-blog"
    },
    "children": [
      "link#blog"
    ]
  },
  "flex-layout.col#image-blog": {
    "props": {
      "width": "35%",
      "paddingRight": 2,
      "verticalAlign": "bottom",
      "blockClass": "image-blog"
    },
    "children": [
      "image#blog"
    ]
  },
  "link#blog": {
    "props": {
      "href": "/",
      "label": "Blog"
    }
  },
  "image#blog": {
    "props": {
      "src": "https://telmovmx.vtexassets.com/arquivos/ids/156577",
      "maxHeight": 40
    }
  },
  "flex-layout.col#telmicoins": {
    "props": {
      "horizontalAlign": "right",
      "verticalAlign": "middle",
      "paddingLeft": 5,
      "paddingRight": 5,
      "border": "left",
      "borderColor": "silver",
      "blockClass": "col-telmicoins"
    },
    "children": [
      "flex-layout.row#telmicoins"
    ]
  },
  "flex-layout.row#telmicoins": {
    "props": {
      "blockClass": "row-telmicoins"
    },
    "children": [
      "flex-layout.col#image-telmicoins",
      "flex-layout.col#link-telmicoins"
    ]
  },
  "flex-layout.col#link-telmicoins": {
    "props": {
      "width": "75%",
      "verticalAlign": "middle",
      "blockClass": "link-telmicoins"
    },
    "children": [
      "link#telmicoins"
    ]
  },
  "flex-layout.col#image-telmicoins": {
    "props": {
      "width": "25%",
      "verticalAlign": "bottom",
      "blockClass": "image-telmicoins"
    },
    "children": [
      "image#telmicoins"
    ]
  },
  "link#telmicoins": {
    "props": {
      "href": "/",
      "label": "Telmicoins"
    }
  },
  "image#telmicoins": {
    "props": {
      "src": "https://telmovmx.vtexassets.com/arquivos/ids/156579",
      "maxHeight": 30
    }
  },
  "flex-layout.col#col-tu-pedido": {
    "props": {
      "horizontalAlign": "right",
      "verticalAlign": "middle",
      "paddingLeft": 5,
      "paddingRight": 5,
      "border": "left",
      "borderColor": "silver",
      "blockClass": "col-tu-pedido"
    },
    "children": [
      "flex-layout.row#tu-pedido"
    ]
  },
  "flex-layout.row#tu-pedido": {
    "props": {
      "blockClass": "row-tu-pedido"
    },
    "children": [
      "flex-layout.col#image-tu-pedido",
      "flex-layout.col#link-tu-pedido"
    ]
  },
  "flex-layout.col#link-tu-pedido": {
    "props": {
      "width": "82%",
      "verticalAlign": "middle",
      "blockClass": "link-tu-pedido"
    },
    "children": [
      "link#tu-pedido"
    ]
  },
  "flex-layout.col#image-tu-pedido": {
    "props": {
      "width": "18%",
      "verticalAlign": "bottom",
      "blockClass": "image-tu-pedido"
    },
    "children": [
      "image#tu-pedido"
    ]
  },
  "link#tu-pedido": {
    "props": {
      "href": "/account#/orders",
      "label": "Mis pedidos",
      "blockClass": "link-tu-pedido"
    }
  },
  "image#tu-pedido": {
    "props": {
      "src": "https://telmovmx.vtexassets.com/arquivos/ids/156692",
      "maxHeight": 30,
      "blockClass": "image-tu-pedido"
    }
  },
  "flex-layout.col#search-bar-desktop": {
    "props": {
      "width": "grow",
      "paddingLeft": 7,
      "verticalAlign": "bottom",
      "blockClass": "barDesktop"
    },
    "children": ["search-bar"]
  },
  "search-bar": {
    "props": {
      "blockClass": "mySearchBar",
      "horizontalAlign": "center",
      "DisplayMode": {
        "search-and-clear-buttons": "search-and-clear-buttons"
      }
    }
  },
  "flex-layout.col#login-desktop": {
    "props": {
      "horizontalAlign": "left",
      "verticalAlign": "middle",
      "border": "left",
      "borderColor": "silver"
    },
    "children": ["login"]
  },
  "flex-layout.col#login-mobile": {
    "props": {
      "horizontalAlign": "left",
      "verticalAlign": "middle",
      "paddingLeft": 3,
      "border": "left",
      "borderColor": "silver"
    },
    "children": ["login"]
  },
  "login": {
    "props": {
      "emailAndPasswordTitle": "LOG-IN",
      "accessCodeTitle": "Acess Code LOG-IN",
      "emailPlaceholder": "e-mail",
      "passwordPlaceholder": "password",
      "showPasswordVerificationIntoTooltip": true,
      "showIconProfile": true,
      "iconLabel": "Mi Cuenta"
    }
  },
  "flex-layout.col#reversso-mobile": {
    "props": {
      "horizontalAlign": "left",
      "verticalAlign": "middle",
      "paddingLeft": 5,
      "paddingRight": 5,
      "border": "left",
      "borderColor": "silver"
    },
    "children": ["image#reversso-image-mobile"]
  },
  "image#reversso-image-mobile": {
    "props": {
      "title": "Devoluciones",
      "src": "https://telmovmx.vtexassets.com/arquivos/ids/159535",
      "maxHeight": 33,
      "link": {
        "url": "https://telmov.reversso.mx/",
        "newTab": false
      }
    }
  },
  "flex-layout.col#minicart-desktop": {
    "props": {
      "horizontalAlign": "left",
      "verticalAlign": "middle",
      "blockClass": "iconMinicart"
    },
    "children": [
      "minicart.v2"
    ]
  },
  "flex-layout.col#text-minicart-desktop": {
    "props": {
      "horizontalAlign": "right",
      "verticalAlign": "middle",
      "paddingLeft": 5,
      "border": "left",
      "borderColor": "silver",
      "blockClass": "textMinicart"
    },
    "children": []
  },
  /* mega menu desktop */
  "flex-layout.row#desktopDos": {
    "props": {
      "fullWidth": true,
      "blockClass": "headerDesktopDos"
    },
    "children": [
      /* "flex-layout.col#trigger-mega-menu" */
    ]
  },
  "flex-layout.row#mega-menu": {
    "props": {
      "preventHorizontalStretch": true,
      "blockClass": "rowMegaMenu"
    },
    "children": ["mega-menu"]
  },
  "mega-menu": {
    "props": {
      "title": "Categorías",
      "blockClass": "megaMenu"
    }
  },
  "flex-layout.col#trigger-mega-menu": {
    "props": {
      "verticalAlign": "middle",
      "blockClass": "triggerMegaMenu"
    },
    "children": ["mega-menu-trigger-btn"]
  },
  
  "flex-layout.col#logo-desktop": {
    "props": {
      "paddingLeft": 0,
      "paddingRight": 0,
      "verticalAlign": "middle",
      "blockClass": "logo-menu"
    },
    "children": ["logo"]
  },
  "logo": {
    "props": {
      "width": 150,
      "mobileWidth": 100,
      "title": "Logo",
      "href": "/",
      "url": "https://telmovmx.vtexassets.com/arquivos/ids/156666"
      /* "url": "https://telmovil.mx/logo-telmov/logotelmov1.svg" */
    }
  },
  "header-layout.mobile": {
    "title": "Header. Mobile",
    "children": ["sticky-layout#mobile"]
  },
  "sticky-layout#mobile": {
    "children": [
      "flex-layout.row#row-main-mobile"
    ]
  },
  "flex-layout.row#row-main-mobile": {
    "props": {
      "fullWidth": true,
      "blockClass": "row-main-mobile"
    },
    "children": [
      "flex-layout.col#col-main-mobile"
    ]
  },
  "flex-layout.col#col-main-mobile": {
    "props": {
      "blockClass": "col-main-mobile"
    },
    "children": [
      /* "flex-layout.row#row-notification-bar", */
      "flex-layout.row#mobile",
      "flex-layout.row#mobileDos"
    ]
  },
  "flex-layout.row#mobile": {
    "children": [
      "flex-layout.col#logo-mobile",
      "flex-layout.col#spacer",
      "flex-layout.col#reversso-mobile",
      "flex-layout.col#login-mobile",
      "flex-layout.col#text-minicart-mobile",
      "flex-layout.col#minicart-mobile"
    ],
    "props": {
      "blockClass": "main-header-mobile",
      "preventHorizontalStretch": true,
      "preserveLayoutOnMobile": true,
      "fullWidth": true,
      "paddingTop": 4
    }
  },
  "flex-layout.col#logo-mobile": {
    "props": {
      "paddingLeft": 0,
      "verticalAlign": "middle"
    },
    "children": ["logo"]
  },
  "flex-layout.row#mobileDos": {
    "children": [
      "flex-layout.col#mega-menu-mobile",
      "flex-layout.col#search-bar-mobile"
    ],
    "props": {
      "horizontalAlign": "center",
      "blockClass": "main-header-mobile-dos",
      "preventHorizontalStretch": true,
      "preserveLayoutOnMobile": true,
      "fullWidth": true
    }
  },
  "flex-layout.col#minicart-mobile": {
    "props": {
      "horizontalAlign": "left",
      "paddingLeft": 1,
      "blockClass": "iconMinicartMobile"
    },
    "children": [
      "minicart.v2"
    ]
  },
  "flex-layout.col#text-minicart-mobile": {
    "props": {
      "horizontalAlign": "right",
      "verticalAlign": "middle",
      "paddingLeft": 3,
      "border": "left",
      "borderColor": "silver",
      "blockClass": "textMinicart"
    },
    "children": []
  },
  "drawer": {
    "children": ["mega-menu"],
    "blocks": ["drawer-header#my-drawer"]
  },
  "drawer-header#my-drawer": {
    "children": ["flex-layout.row#drawer-header"]
  },
  "flex-layout.row#drawer-header": {
    "children": [
      "flex-layout.col#mega-menu-go-back-btn",
      "flex-layout.col#spacer",
      "flex-layout.col#drawer-close-button"
    ],
    "props": {
      "blockClass": "drawer-header",
      "preventHorizontalStretch": true,
      "preventVerticalStretch": true,
      "preserveLayoutOnMobile": true,
      "fullWidth": true
    }
  },
  "flex-layout.col#drawer-close-button": {
    "children": ["drawer-close-button"],
    "props": {
      "verticalAlign": "middle",
      "horizontalAlign": "right"
    }
  },
  "flex-layout.col#mega-menu-go-back-btn": {
    "children": ["mega-menu-go-back-btn"],
    "props": {
      "verticalAlign": "middle",
      "horizontalAlign": "left",
      "paddingLeft": 2
    }
  },
  "flex-layout.col#mega-menu-mobile": {
    "props": {
      "verticalAlign": "bottom",
      "blockClass": "megaMenuMobile",
      "paddingLeft": 5
    },
    "children": ["drawer"]
  },
  "flex-layout.col#search-bar-mobile": {
    "props": {
      "verticalAlign": "bottom",
      "blockClass": "barMobile",
      "paddingLeft": 5
    },
    "children": ["search-bar"]
  },
  "flex-layout.col#col-telegram-header": {
    "props": {
      "horizontalAlign": "center",
      "verticalAlign": "middle",
      "paddingLeft": 3,
      "blockClass": "col-telegram-header"
    },
    "children": ["image#telegram-header"]
  },
  "image#telegram-header": {
    "props": {
      "title": "telegram",
      "src": "https://telmovmx.vtexassets.com/arquivos/ids/157229",
      "maxHeight": 35,
      "link": {
        "url": "https://t.me/telmov_2022",
        "newTab": true
      }
    }
  },
  "flex-layout.col#col-facebook-header": {
    "props": {
      "horizontalAlign": "center",
      "verticalAlign": "middle",
      "paddingLeft": 3,
      "blockClass": "col-facebook-header"
    },
    "children": ["image#facebook-header"]
  },
  "image#facebook-header": {
    "props": {
      "title": "facebook",
      "src": "https://telmovmx.vtexassets.com/arquivos/ids/156668",
      "maxHeight": 35,
      "link": {
        "url": "https://web.facebook.com/telmov.mx",
        "newTab": true
      }
    }
  },
  "flex-layout.col#col-instagram-header": {
    "props": {
      "horizontalAlign": "center",
      "verticalAlign": "middle",
      "paddingLeft": 3,
      "blockClass": "col-instagram-header"
    },
    "children": ["image#instagram-header"]
  },
  "image#instagram-header": {
    "props": {
      "title": "instagram",
      "src": "https://telmovmx.vtexassets.com/arquivos/ids/156669",
      "maxHeight": 35,
      "link": {
        "url": "https://www.instagram.com/telmov.mx",
        "newTab": true
      }
    }
  },
  "flex-layout.col#col-tiktok-header": {
    "props": {
      "horizontalAlign": "center",
      "verticalAlign": "middle",
      "paddingLeft": 3,
      "blockClass": "col-tiktok-header"
    },
    "children": ["image#tiktok-header"]
  },
  "image#tiktok-header": {
    "props": {
      "title": "tiktok",
      "src": "https://telmovmx.vtexassets.com/arquivos/ids/156670",
      "maxHeight": 35,
      "link": {
        "url": "https://www.tiktok.com/@telmovmx?is_copy_url=1&amp;is_from_webapp=v1",
        "newTab": true
      }
    }
  },
  "flex-layout.col#col-youtube-header": {
    "props": {
      "horizontalAlign": "center",
      "verticalAlign": "middle",
      "paddingLeft": 3,
      "paddingRight": 5,
      "blockClass": "col-youtube-header"
    },
    "children": ["image#youtube-header"]
  },
  "image#youtube-header": {
    "props": {
      "title": "youtube",
      "src": "https://telmovmx.vtexassets.com/arquivos/ids/156671",
      "maxHeight": 35,
      "link": {
        "url": "https://www.youtube.com/channel/UCo68Vo-b0cCan011-Ji98EA?app=desktop",
        "newTab": true
      }
    }
  }
}