{
  // CardsInSliderAA
  "responsive-layout.mobile#CardsInSliderAA-01": {
    "title": "Cards In Row",
    "children": [
      "flex-layout.row#CardsInSliderAA-01"
    ]
  },
  "responsive-layout.desktop#CardsInSliderAA-01": {
    "title": "Cards In Row",
    "children": [
      "flex-layout.row#CardsInSliderAA-01"
    ]
  },
  "flex-layout.row#CardsInSliderAA-01": {
    "title": "Cards In Row",
    "props": {
      "blockClass": [
        "BackgroundColorM",
        "CardsInSliderAA"
      ]
    },
    "children": [
      "flex-layout.col#CardsInSliderAA-01"
    ]
  },
  "flex-layout.col#CardsInSliderAA-01": {
    "children": [
      "rich-text#BlockTitleAA-01",
      "list-context.info-card-list#CardsInSliderAA-01"
    ]
  },
  "list-context.info-card-list#CardsInSliderAA-01": {
    "props": {
      "infoCards": [
        {
          "isFullModeStyle": false,
          "mobileImageUrl": "https://dummyimage.com/500x500/dedede/eee",
          "imageUrl": "https://dummyimage.com/500x500/dedede/eee",
          // "headline": "Title 01",
          "callToActionUrl": "/"
        },
        {
          "isFullModeStyle": false,
          "mobileImageUrl": "https://dummyimage.com/500x500/dedede/eee",
          "imageUrl": "https://dummyimage.com/500x500/dedede/eee",
          // "headline": "Title 02",
          "callToActionUrl": "/"
        },
        {
          "isFullModeStyle": false,
          "mobileImageUrl": "https://dummyimage.com/500x500/dedede/eee",
          "imageUrl": "https://dummyimage.com/500x500/dedede/eee",
          // "headline": "Title 03",
          "callToActionUrl": "/"
        }
      ]
    },
    "children": [
      "slider-layout#CardsInSliderAA-01"
    ]
  },
  "slider-layout#CardsInSliderAA-01": {
    "props": {
      "itemsPerPage": {
        "phone": 1,
        "tablet": 3,
        "desktop": 3
      },
      "infinite": false,
      "autoplay": {
        "timeout": 7500
      },
      "showNavigationArrows": "never",
      "showPaginationDots": "mobileOnly",
      "blockClass": [
        "CardsAA"
      ]
    }
  }
}