{
  "flex-layout.row#MasonryAA_Wrapper-01": {
    "title": "Masonry Grid [Row]",
    "props": {
      "blockClass": [
        "MasonryAA_Wrapper"
      ]
    },
    "children": [
      "flex-layout.col#MasonryAA_Wrapper-01"
    ]
  },
  "flex-layout.col#MasonryAA_Wrapper-01": {
    "children": [
      "rich-text#BlockTitleAA-01",
      "flex-layout.row#MasonryAA-01"    
    ]
  },
  "flex-layout.row#MasonryAA-01": {
    "title": "Masonry Grid [Row]",
    "props": {
      "blockClass": [
        "MasonryAA"
      ]
    },
    "children": [
      "flex-layout.col#MasonryAA_ColumnIn01",
      "flex-layout.col#MasonryAA_ColumnIn02"
    ]
  },
  "flex-layout.col#MasonryAA_ColumnIn01": {
    "props": {
      "blockClass": [
        "MasonryAA_ColumnIn01"
      ]
    },
    "children": [
      "list-context.info-card-list#MasonryAA_ContentIn01"
    ]
  },
  "flex-layout.col#MasonryAA_ColumnIn02": {
    "props": {
      "blockClass": [
        "MasonryAA_ColumnIn02"
      ]
    },
    "children": [
      "list-context.info-card-list#MasonryAA_ContentIn02-01",
      "list-context.info-card-list#MasonryAA_ContentIn02-02"
    ]
  },
  // 
  "list-context.info-card-list#MasonryAA_ContentIn01": {
    "props": {
      "infoCards": [
        {
          "isFullModeStyle": false,
          "mobileImageUrl": "https://dummyimage.com/500x500/dedede/eee",
          "imageUrl": "https://dummyimage.com/800x700/dedede/eee",
          // "headline": "Title 01",
          "callToActionUrl": "/"
        },
        {
          "isFullModeStyle": false,
          "mobileImageUrl": "https://dummyimage.com/500x500/dedede/eee",
          "imageUrl": "https://dummyimage.com/800x700/dedede/eee",
          // "headline": "Title 02",
          "callToActionUrl": "/"
        }
      ]
    },
    "children": [
      "slider-layout#MasonryAA_ContentIn01"
    ]
  },
  "slider-layout#MasonryAA_ContentIn01": {
    "props": {
      "itemsPerPage": {
        "phone": 1,
        "tablet": 1,
        "desktop": 1
      },
      "infinite": false,
      "autoplay": {
        "timeout": 7500
      },
      "showNavigationArrows": "never",
      "showPaginationDots": "never",
      "blockClass": [
        "CardsAA",
        "MasonryAA_Card"
      ]
    }
  },

  "list-context.info-card-list#MasonryAA_ContentIn02-01": {
    "props": {
      "infoCards": [
        {
          "isFullModeStyle": false,
          "mobileImageUrl": "https://dummyimage.com/500x250/dedede/eee",
          "imageUrl": "https://dummyimage.com/800x345/dedede/eee",
          // "headline": "Title 01",
          "callToActionUrl": "/"
        },
        {
          "isFullModeStyle": false,
          "mobileImageUrl": "https://dummyimage.com/500x250/dedede/eee",
          "imageUrl": "https://dummyimage.com/800x345/dedede/eee",
          // "headline": "Title 02",
          "callToActionUrl": "/"
        }
      ]
    },
    "children": [
      "slider-layout#MasonryAA_ContentIn02-01"
    ]
  },
  "slider-layout#MasonryAA_ContentIn02-01": {
    "props": {
      "itemsPerPage": {
        "phone": 1,
        "tablet": 1,
        "desktop": 1
      },
      "infinite": false,
      "autoplay": {
        "timeout": 7500
      },
      "showNavigationArrows": "never",
      "showPaginationDots": "never",
      "blockClass": [
        "CardsAA",
        "MasonryAA_Card"
      ]
    }
  },

  "list-context.info-card-list#MasonryAA_ContentIn02-02": {
    "props": {
      "infoCards": [
        {
          "isFullModeStyle": false,
          "mobileImageUrl": "https://dummyimage.com/500x250/dedede/eee",
          "imageUrl": "https://dummyimage.com/800x345/dedede/eee",
          // "headline": "Title 01",
          "callToActionUrl": "/"
        },
        {
          "isFullModeStyle": false,
          "mobileImageUrl": "https://dummyimage.com/500x250/dedede/eee",
          "imageUrl": "https://dummyimage.com/800x345/dedede/eee",
          // "headline": "Title 02",
          "callToActionUrl": "/"
        }
      ]
    },
    "children": [
      "slider-layout#MasonryAA_ContentIn02-02"
    ]
  },
  "slider-layout#MasonryAA_ContentIn02-02": {
    "props": {
      "itemsPerPage": {
        "phone": 1,
        "tablet": 1,
        "desktop": 1
      },
      "infinite": false,
      "autoplay": {
        "timeout": 7500
      },
      "showNavigationArrows": "never",
      "showPaginationDots": "never",
      "blockClass": [
        "CardsAA",
        "MasonryAA_Card"
      ]
    }
  }
}